Informes/material/diseno/0.25/rt_0.50_470_390.CSV

Record Length,20480,,Source,CH1,CH2
Sample Interval,CH1:0.0000000020000 CH2:0.0000000020000,,Second,Volt,Volt
Vertical Units,CH1:V CH2:V,,-0.00002048000,0.04000,0.00
Vertical Scale,CH1:1.00 CH2:1.00,,-0.00002047800,0.04000,0.08000
Vertical Offset,CH1:-2.00000 CH2:-2.00000,,-0.00002047600,0.00,0.08000
Horizontal Units,s,,-0.00002047400,0.08000,0.08000
Horizontal Scale,0.0000000050,,-0.00002047200,0.00,0.08000
Model Number,SDS1152CML,,-0.00002047000,0.00,-0.04000
Serial Number,SDS00002131559,,-0.00002046800,0.04000,0.04000
Software Version,5.01.02.13,,-0.00002046600,0.00,0.12000
,,,-0.00002046400,0.08000,0.12000
,,,-0.00002046200,0.04000,0.08000
,,,-0.00002046000,0.04000,0.00
,,,-0.00002045800,0.04000,0.00
,,,-0.00002045600,0.00,0.12000
,,,-0.00002045400,0.04000,0.16000
,,,-0.00002045200,0.04000,0.04000
,,,-0.00002045000,0.04000,0.00
,,,-0.00002044800,0.04000,-0.04000
,,,-0.00002044600,-0.04000,0.08000
,,,-0.00002044400,0.04000,0.20000
,,,-0.00002044200,0.04000,0.08000
,,,-0.00002044000,0.00,0.00
,,,-0.00002043800,0.04000,-0.04000
,,,-0.00002043600,-0.04000,0.08000
,,,-0.00002043400,0.04000,0.16000
,,,-0.00002043200,0.04000,0.12000
,,,-0.00002043000,0.04000,0.00
,,,-0.00002042800,0.04000,-0.04000
,,,-0.00002042600,-0.04000,0.00
,,,-0.00002042400,0.04000,0.16000
,,,-0.00002042200,0.04000,0.12000
,,,-0.00002042000,0.04000,0.00
,,,-0.00002041800,0.04000,-0.04000
,,,-0.00002041600,0.00,0.00
,,,-0.00002041400,0.00,0.16000
,,,-0.00002041200,0.04000,0.16000
,,,-0.00002041000,0.00,0.00
,,,-0.00002040800,0.04000,0.00
,,,-0.00002040600,0.00,-0.04000
,,,-0.00002040400,0.04000,0.12000
,,,-0.00002040200,0.04000,0.16000
,,,-0.00002040000,0.04000,0.00
,,,-0.00002039800,0.04000,-0.04000
,,,-0.00002039600,0.00,-0.04000
,,,-0.00002039400,0.08000,0.08000
,,,-0.00002039200,0.00,0.16000
,,,-0.00002039000,0.00,0.08000
,,,-0.00002038800,0.04000,0.00
,,,-0.00002038600,0.00,-0.04000
,,,-0.00002038400,0.08000,0.08000
,,,-0.00002038200,0.04000,0.12000
,,,-0.00002038000,0.00,0.08000
,,,-0.00002037800,0.04000,0.00
,,,-0.00002037600,0.00,0.00
,,,-0.00002037400,0.04000,0.04000
,,,-0.00002037200,0.04000,0.12000
,,,-0.00002037000,0.00,0.12000
,,,-0.00002036800,0.04000,0.00
,,,-0.00002036600,0.00,0.00
,,,-0.00002036400,0.04000,0.08000
,,,-0.00002036200,0.04000,0.12000
,,,-0.00002036000,0.00,0.12000
,,,-0.00002035800,0.04000,0.04000
,,,-0.00002035600,-0.04000,-0.04000
,,,-0.00002035400,0.04000,0.08000
,,,-0.00002035200,0.04000,0.08000
,,,-0.00002035000,0.00,0.08000
,,,-0.00002034800,0.04000,0.08000
,,,-0.00002034600,0.00,0.00
,,,-0.00002034400,0.04000,0.08000
,,,-0.00002034200,0.00,0.04000
,,,-0.00002034000,0.00,0.08000
,,,-0.00002033800,0.04000,0.12000
,,,-0.00002033600,0.00,0.00
,,,-0.00002033400,0.04000,0.08000
,,,-0.00002033200,0.04000,0.04000
,,,-0.00002033000,0.04000,0.00
,,,-0.00002032800,0.04000,0.12000
,,,-0.00002032600,0.00,0.04000
,,,-0.00002032400,0.04000,0.08000
,,,-0.00002032200,0.04000,0.04000
,,,-0.00002032000,0.00,0.00
,,,-0.00002031800,0.04000,0.08000
,,,-0.00002031600,0.00,0.08000
,,,-0.00002031400,0.04000,0.12000
,,,-0.00002031200,0.04000,0.08000
,,,-0.00002031000,0.04000,-0.04000
,,,-0.00002030800,0.04000,0.04000
,,,-0.00002030600,0.00,0.12000
,,,-0.00002030400,0.04000,0.12000
,,,-0.00002030200,0.00,0.08000
,,,-0.00002030000,0.04000,-0.04000
,,,-0.00002029800,0.04000,0.00
,,,-0.00002029600,-0.04000,0.12000
,,,-0.00002029400,0.04000,0.12000
,,,-0.00002029200,0.04000,0.08000
,,,-0.00002029000,0.04000,-0.04000
,,,-0.00002028800,0.04000,-0.04000
,,,-0.00002028600,0.00,0.08000
,,,-0.00002028400,0.08000,0.20000
,,,-0.00002028200,0.00,0.04000
,,,-0.00002028000,0.00,0.00
,,,-0.00002027800,0.04000,-0.04000
,,,-0.00002027600,0.00,0.04000
,,,-0.00002027400,0.08000,0.20000
,,,-0.00002027200,0.04000,0.08000
,,,-0.00002027000,0.00,0.00
,,,-0.00002026800,0.04000,-0.04000
,,,-0.00002026600,0.00,0.00
,,,-0.00002026400,0.04000,0.16000
,,,-0.00002026200,0.04000,0.12000
,,,-0.00002026000,0.00,0.00
,,,-0.00002025800,0.04000,-0.04000
,,,-0.00002025600,0.00,-0.04000
,,,-0.00002025400,0.04000,0.16000
,,,-0.00002025200,0.04000,0.16000
,,,-0.00002025000,0.00,0.00
,,,-0.00002024800,0.04000,0.00
,,,-0.00002024600,0.00,-0.04000
,,,-0.00002024400,0.04000,0.16000
,,,-0.00002024200,0.00,0.20000
,,,-0.00002024000,0.04000,0.04000
,,,-0.00002023800,0.04000,0.00
,,,-0.00002023600,0.00,-0.04000
,,,-0.00002023400,0.04000,0.08000
,,,-0.00002023200,0.00,0.16000
,,,-0.00002023000,0.04000,0.08000
,,,-0.00002022800,0.04000,0.00
,,,-0.00002022600,-0.04000,-0.04000
,,,-0.00002022400,0.04000,0.08000
,,,-0.00002022200,0.04000,0.16000
,,,-0.00002022000,0.04000,0.08000
,,,-0.00002021800,0.04000,0.00
,,,-0.00002021600,0.00,0.00
,,,-0.00002021400,0.04000,0.04000
,,,-0.00002021200,0.00,0.12000
,,,-0.00002021000,0.00,0.12000
,,,-0.00002020800,0.04000,0.00
,,,-0.00002020600,-0.04000,0.00
,,,-0.00002020400,0.04000,0.04000
,,,-0.00002020200,0.04000,0.08000
,,,-0.00002020000,0.04000,0.12000
,,,-0.00002019800,0.00,0.04000
,,,-0.00002019600,-0.04000,-0.04000
,,,-0.00002019400,0.04000,0.08000
,,,-0.00002019200,0.04000,0.08000
,,,-0.00002019000,0.00,0.12000
,,,-0.00002018800,0.00,0.08000
,,,-0.00002018600,0.00,0.00
,,,-0.00002018400,0.04000,0.08000
,,,-0.00002018200,0.04000,0.08000
,,,-0.00002018000,0.04000,0.08000
,,,-0.00002017800,0.00,0.12000
,,,-0.00002017600,0.00,0.00
,,,-0.00002017400,0.04000,0.08000
,,,-0.00002017200,0.04000,0.08000
,,,-0.00002017000,0.04000,0.04000
,,,-0.00002016800,0.00,0.08000
,,,-0.00002016600,0.00,0.04000
,,,-0.00002016400,0.04000,0.08000
,,,-0.00002016200,0.04000,0.08000
,,,-0.00002016000,0.04000,0.00
,,,-0.00002015800,0.04000,0.08000
,,,-0.00002015600,0.00,0.08000
,,,-0.00002015400,0.04000,0.08000
,,,-0.00002015200,0.04000,0.04000
,,,-0.00002015000,0.00,0.00
,,,-0.00002014800,0.04000,0.08000
,,,-0.00002014600,0.00,0.12000
,,,-0.00002014400,0.04000,0.12000
,,,-0.00002014200,0.04000,0.04000
,,,-0.00002014000,0.04000,-0.04000
,,,-0.00002013800,0.04000,0.04000
,,,-0.00002013600,-0.04000,0.08000
,,,-0.00002013400,0.04000,0.12000
,,,-0.00002013200,0.04000,0.04000
,,,-0.00002013000,0.04000,-0.04000
,,,-0.00002012800,0.04000,0.00
,,,-0.00002012600,0.00,0.08000
,,,-0.00002012400,0.04000,0.16000
,,,-0.00002012200,0.04000,0.08000
,,,-0.00002012000,0.00,0.00
,,,-0.00002011800,0.04000,-0.04000
,,,-0.00002011600,-0.04000,0.08000
,,,-0.00002011400,0.04000,0.16000
,,,-0.00002011200,0.04000,0.08000
,,,-0.00002011000,0.00,0.00
,,,-0.00002010800,0.04000,-0.04000
,,,-0.00002010600,0.00,0.00
,,,-0.00002010400,0.04000,0.16000
,,,-0.00002010200,0.04000,0.12000
,,,-0.00002010000,0.00,0.00
,,,-0.00002009800,0.04000,-0.04000
,,,-0.00002009600,0.00,0.00
,,,-0.00002009400,0.04000,0.16000
,,,-0.00002009200,0.04000,0.12000
,,,-0.00002009000,0.00,0.00
,,,-0.00002008800,0.04000,0.00
,,,-0.00002008600,0.00,-0.04000
,,,-0.00002008400,0.04000,0.12000
,,,-0.00002008200,0.04000,0.16000
,,,-0.00002008000,0.00,0.00
,,,-0.00002007800,0.04000,0.00
,,,-0.00002007600,0.00,-0.04000
,,,-0.00002007400,0.04000,0.12000
,,,-0.00002007200,0.00,0.16000
,,,-0.00002007000,0.04000,0.04000
,,,-0.00002006800,0.04000,0.00
,,,-0.00002006600,0.00,-0.04000
,,,-0.00002006400,0.04000,0.08000
,,,-0.00002006200,0.04000,0.12000
,,,-0.00002006000,0.00,0.08000
,,,-0.00002005800,0.04000,0.00
,,,-0.00002005600,-0.04000,-0.04000
,,,-0.00002005400,0.04000,0.04000
,,,-0.00002005200,0.00,0.12000
,,,-0.00002005000,0.00,0.12000
,,,-0.00002004800,0.04000,0.00
,,,-0.00002004600,-0.04000,-0.04000
,,,-0.00002004400,0.00,0.04000
,,,-0.00002004200,0.00,0.12000
,,,-0.00002004000,0.00,0.12000
,,,-0.00002003800,0.04000,0.04000
,,,-0.00002003600,-0.04000,0.00
,,,-0.00002003400,0.04000,0.08000
,,,-0.00002003200,0.04000,0.08000
,,,-0.00002003000,0.00,0.12000
,,,-0.00002002800,0.04000,0.08000
,,,-0.00002002600,-0.04000,0.00
,,,-0.00002002400,0.04000,0.08000
,,,-0.00002002200,0.00,0.08000
,,,-0.00002002000,0.04000,0.08000
,,,-0.00002001800,0.04000,0.12000
,,,-0.00002001600,-0.04000,0.00
,,,-0.00002001400,0.00,0.12000
,,,-0.00002001200,0.00,0.04000
,,,-0.00002001000,0.04000,0.00
,,,-0.00002000800,0.00,0.12000
,,,-0.00002000600,0.00,0.04000
,,,-0.00002000400,0.04000,0.08000
,,,-0.00002000200,0.04000,0.08000
,,,-0.00002000000,0.04000,0.00
,,,-0.00001999800,0.04000,0.08000
,,,-0.00001999600,-0.04000,0.08000
,,,-0.00001999400,0.08000,0.08000
,,,-0.00001999200,0.00,0.08000
,,,-0.00001999000,0.00,-0.04000
,,,-0.00001998800,0.04000,0.08000
,,,-0.00001998600,-0.04000,0.12000
,,,-0.00001998400,0.04000,0.12000
,,,-0.00001998200,0.04000,0.08000
,,,-0.00001998000,0.04000,-0.04000
,,,-0.00001997800,0.04000,0.00
,,,-0.00001997600,-0.04000,0.12000
,,,-0.00001997400,0.04000,0.12000
,,,-0.00001997200,0.04000,0.08000
,,,-0.00001997000,0.00,0.00
,,,-0.00001996800,0.04000,0.00
,,,-0.00001996600,0.00,0.08000
,,,-0.00001996400,0.04000,0.16000
,,,-0.00001996200,0.04000,0.12000
,,,-0.00001996000,0.04000,0.00
,,,-0.00001995800,0.04000,-0.04000
,,,-0.00001995600,-0.04000,0.08000
,,,-0.00001995400,0.04000,0.16000
,,,-0.00001995200,0.00,0.12000
,,,-0.00001995000,0.00,-0.04000
,,,-0.00001994800,0.00,-0.04000
,,,-0.00001994600,-0.04000,0.00
,,,-0.00001994400,0.08000,0.16000
,,,-0.00001994200,0.00,0.12000
,,,-0.00001994000,0.00,0.00
,,,-0.00001993800,0.04000,-0.04000
,,,-0.00001993600,-0.04000,0.00
,,,-0.00001993400,0.04000,0.16000
,,,-0.00001993200,0.04000,0.12000
,,,-0.00001993000,0.00,0.00
,,,-0.00001992800,0.04000,0.00
,,,-0.00001992600,-0.04000,-0.04000
,,,-0.00001992400,0.04000,0.12000
,,,-0.00001992200,0.00,0.16000
,,,-0.00001992000,0.00,0.00
,,,-0.00001991800,0.04000,0.00
,,,-0.00001991600,0.00,-0.04000
,,,-0.00001991400,0.08000,0.12000
,,,-0.00001991200,0.04000,0.16000
,,,-0.00001991000,0.00,0.04000
,,,-0.00001990800,0.04000,0.00
,,,-0.00001990600,0.00,-0.04000
,,,-0.00001990400,0.08000,0.08000
,,,-0.00001990200,0.00,0.16000
,,,-0.00001990000,0.00,0.08000
,,,-0.00001989800,0.04000,0.00
,,,-0.00001989600,-0.04000,-0.04000
,,,-0.00001989400,0.04000,0.04000
,,,-0.00001989200,0.00,0.16000
,,,-0.00001989000,0.04000,0.12000
,,,-0.00001988800,0.04000,0.00
,,,-0.00001988600,0.00,-0.04000
,,,-0.00001988400,0.04000,0.08000
,,,-0.00001988200,0.00,0.12000
,,,-0.00001988000,0.00,0.12000
,,,-0.00001987800,0.04000,0.04000
,,,-0.00001987600,0.00,0.00
,,,-0.00001987400,0.08000,0.04000
,,,-0.00001987200,0.04000,0.08000
,,,-0.00001987000,0.00,0.08000
,,,-0.00001986800,0.04000,0.08000
,,,-0.00001986600,0.00,0.00
,,,-0.00001986400,0.08000,0.12000
,,,-0.00001986200,0.04000,0.04000
,,,-0.00001986000,0.00,0.04000
,,,-0.00001985800,0.04000,0.08000
,,,-0.00001985600,0.00,0.00
,,,-0.00001985400,0.08000,0.08000
,,,-0.00001985200,0.04000,0.04000
,,,-0.00001985000,0.04000,0.04000
,,,-0.00001984800,0.00,0.12000
,,,-0.00001984600,0.00,0.00
,,,-0.00001984400,0.08000,0.08000
,,,-0.00001984200,0.00,0.08000
,,,-0.00001984000,0.00,0.00
,,,-0.00001983800,0.00,0.08000
,,,-0.00001983600,0.00,0.08000
,,,-0.00001983400,0.04000,0.12000
,,,-0.00001983200,0.04000,0.04000
,,,-0.00001983000,0.04000,0.00
,,,-0.00001982800,0.00,0.08000
,,,-0.00001982600,-0.04000,0.12000
,,,-0.00001982400,0.04000,0.12000
,,,-0.00001982200,0.04000,0.04000
,,,-0.00001982000,0.00,-0.04000
,,,-0.00001981800,0.00,0.00
,,,-0.00001981600,-0.04000,0.12000
,,,-0.00001981400,0.04000,0.12000
,,,-0.00001981200,0.04000,0.08000
,,,-0.00001981000,0.00,0.00
,,,-0.00001980800,0.04000,0.00
,,,-0.00001980600,-0.04000,0.08000
,,,-0.00001980400,0.04000,0.16000
,,,-0.00001980200,0.00,0.08000
,,,-0.00001980000,0.04000,0.00
,,,-0.00001979800,0.04000,-0.04000
,,,-0.00001979600,0.00,0.08000
,,,-0.00001979400,0.04000,0.16000
,,,-0.00001979200,0.00,0.08000
,,,-0.00001979000,0.04000,0.00
,,,-0.00001978800,0.04000,-0.04000
,,,-0.00001978600,0.00,0.00
,,,-0.00001978400,0.04000,0.20000
,,,-0.00001978200,0.04000,0.08000
,,,-0.00001978000,0.00,0.00
,,,-0.00001977800,0.04000,-0.04000
,,,-0.00001977600,0.00,0.00
,,,-0.00001977400,0.04000,0.16000
,,,-0.00001977200,0.00,0.16000
,,,-0.00001977000,0.00,0.00
,,,-0.00001976800,0.04000,0.00
,,,-0.00001976600,0.00,-0.04000
,,,-0.00001976400,0.04000,0.16000
,,,-0.00001976200,0.04000,0.16000
,,,-0.00001976000,0.04000,0.00
,,,-0.00001975800,0.00,0.00
,,,-0.00001975600,-0.04000,-0.04000
,,,-0.00001975400,0.04000,0.12000
,,,-0.00001975200,0.00,0.16000
,,,-0.00001975000,0.00,0.04000
,,,-0.00001974800,0.04000,0.00
,,,-0.00001974600,0.00,-0.04000
,,,-0.00001974400,0.04000,0.08000
,,,-0.00001974200,0.00,0.16000
,,,-0.00001974000,0.04000,0.08000
,,,-0.00001973800,0.04000,0.00
,,,-0.00001973600,0.00,-0.04000
,,,-0.00001973400,0.04000,0.08000
,,,-0.00001973200,0.04000,0.16000
,,,-0.00001973000,0.00,0.12000
,,,-0.00001972800,0.04000,0.00
,,,-0.00001972600,-0.04000,0.00
,,,-0.00001972400,0.04000,0.04000
,,,-0.00001972200,0.04000,0.12000
,,,-0.00001972000,0.00,0.12000
,,,-0.00001971800,0.04000,0.04000
,,,-0.00001971600,0.00,0.00
,,,-0.00001971400,0.00,0.08000
,,,-0.00001971200,0.04000,0.04000
,,,-0.00001971000,0.00,0.12000
,,,-0.00001970800,0.00,0.08000
,,,-0.00001970600,0.00,0.00
,,,-0.00001970400,0.04000,0.08000
,,,-0.00001970200,0.04000,0.04000
,,,-0.00001970000,0.00,0.08000
,,,-0.00001969800,0.04000,0.08000
,,,-0.00001969600,-0.04000,0.00
,,,-0.00001969400,0.04000,0.08000
,,,-0.00001969200,0.04000,0.04000
,,,-0.00001969000,0.04000,0.04000
,,,-0.00001968800,0.04000,0.08000
,,,-0.00001968600,0.00,0.04000
,,,-0.00001968400,0.04000,0.12000
,,,-0.00001968200,0.00,0.04000
,,,-0.00001968000,0.00,0.00
,,,-0.00001967800,0.04000,0.08000
,,,-0.00001967600,-0.04000,0.04000
,,,-0.00001967400,0.04000,0.08000
,,,-0.00001967200,0.04000,0.04000
,,,-0.00001967000,0.04000,0.00
,,,-0.00001966800,0.04000,0.08000
,,,-0.00001966600,-0.04000,0.08000
,,,-0.00001966400,0.04000,0.12000
,,,-0.00001966200,0.04000,0.04000
,,,-0.00001966000,0.04000,-0.04000
,,,-0.00001965800,0.04000,0.04000
,,,-0.00001965600,-0.04000,0.12000
,,,-0.00001965400,0.04000,0.12000
,,,-0.00001965200,0.04000,0.08000
,,,-0.00001965000,0.00,-0.04000
,,,-0.00001964800,0.04000,0.00
,,,-0.00001964600,0.00,0.12000
,,,-0.00001964400,0.04000,0.16000
,,,-0.00001964200,0.04000,0.08000
,,,-0.00001964000,0.04000,0.00
,,,-0.00001963800,0.00,-0.04000
,,,-0.00001963600,-0.04000,0.08000
,,,-0.00001963400,0.04000,0.20000
,,,-0.00001963200,0.04000,0.08000
,,,-0.00001963000,0.04000,0.00
,,,-0.00001962800,0.04000,-0.04000
,,,-0.00001962600,0.00,0.00
,,,-0.00001962400,0.04000,0.16000
,,,-0.00001962200,0.04000,0.08000
,,,-0.00001962000,0.00,0.00
,,,-0.00001961800,0.04000,-0.04000
,,,-0.00001961600,0.00,0.00
,,,-0.00001961400,0.04000,0.16000
,,,-0.00001961200,0.04000,0.12000
,,,-0.00001961000,0.00,0.00
,,,-0.00001960800,0.04000,-0.04000
,,,-0.00001960600,0.00,-0.04000
,,,-0.00001960400,0.04000,0.16000
,,,-0.00001960200,0.04000,0.16000
,,,-0.00001960000,0.00,0.00
,,,-0.00001959800,0.04000,0.00
,,,-0.00001959600,0.00,-0.04000
,,,-0.00001959400,0.04000,0.12000
,,,-0.00001959200,0.00,0.16000
,,,-0.00001959000,0.00,0.04000
,,,-0.00001958800,0.04000,0.00
,,,-0.00001958600,0.00,-0.08000
,,,-0.00001958400,0.04000,0.08000
,,,-0.00001958200,0.04000,0.16000
,,,-0.00001958000,0.00,0.08000
,,,-0.00001957800,0.04000,0.00
,,,-0.00001957600,0.00,-0.04000
,,,-0.00001957400,0.04000,0.04000
,,,-0.00001957200,0.00,0.12000
,,,-0.00001957000,0.00,0.12000
,,,-0.00001956800,0.04000,0.00
,,,-0.00001956600,0.00,-0.04000
,,,-0.00001956400,0.08000,0.04000
,,,-0.00001956200,0.00,0.12000
,,,-0.00001956000,0.00,0.12000
,,,-0.00001955800,0.00,0.00
,,,-0.00001955600,-0.04000,0.00
,,,-0.00001955400,0.04000,0.08000
,,,-0.00001955200,0.04000,0.12000
,,,-0.00001955000,0.00,0.12000
,,,-0.00001954800,0.00,0.04000
,,,-0.00001954600,0.00,0.00
,,,-0.00001954400,0.04000,0.08000
,,,-0.00001954200,0.04000,0.08000
,,,-0.00001954000,0.00,0.08000
,,,-0.00001953800,0.04000,0.08000
,,,-0.00001953600,-0.04000,0.00
,,,-0.00001953400,0.04000,0.08000
,,,-0.00001953200,0.04000,0.04000
,,,-0.00001953000,0.04000,0.04000
,,,-0.00001952800,0.00,0.12000
,,,-0.00001952600,-0.04000,0.00
,,,-0.00001952400,0.04000,0.08000
,,,-0.00001952200,0.04000,0.08000
,,,-0.00001952000,0.00,0.00
,,,-0.00001951800,0.00,0.08000
,,,-0.00001951600,0.00,0.08000
,,,-0.00001951400,0.04000,0.08000
,,,-0.00001951200,0.04000,0.08000
,,,-0.00001951000,0.00,0.00
,,,-0.00001950800,0.04000,0.08000
,,,-0.00001950600,-0.04000,0.12000
,,,-0.00001950400,0.04000,0.08000
,,,-0.00001950200,0.04000,0.04000
,,,-0.00001950000,0.00,-0.04000
,,,-0.00001949800,0.04000,0.04000
,,,-0.00001949600,0.00,0.08000
,,,-0.00001949400,0.04000,0.12000
,,,-0.00001949200,0.04000,0.08000
,,,-0.00001949000,0.00,-0.04000
,,,-0.00001948800,0.04000,0.00
,,,-0.00001948600,-0.04000,0.12000
,,,-0.00001948400,0.04000,0.16000
,,,-0.00001948200,0.04000,0.08000
,,,-0.00001948000,0.04000,-0.04000
,,,-0.00001947800,0.04000,-0.04000
,,,-0.00001947600,0.00,0.08000
,,,-0.00001947400,0.08000,0.16000
,,,-0.00001947200,0.04000,0.04000
,,,-0.00001947000,0.00,0.00
,,,-0.00001946800,0.04000,-0.04000
,,,-0.00001946600,0.00,0.04000
,,,-0.00001946400,0.04000,0.16000
,,,-0.00001946200,0.04000,0.08000
,,,-0.00001946000,0.00,0.00
,,,-0.00001945800,0.04000,-0.04000
,,,-0.00001945600,0.00,0.00
,,,-0.00001945400,0.04000,0.20000
,,,-0.00001945200,0.04000,0.12000
,,,-0.00001945000,0.00,0.00
,,,-0.00001944800,0.04000,0.00
,,,-0.00001944600,0.00,0.00
,,,-0.00001944400,0.04000,0.16000
,,,-0.00001944200,0.04000,0.16000
,,,-0.00001944000,0.00,0.00
,,,-0.00001943800,0.04000,-0.04000
,,,-0.00001943600,0.00,-0.08000
,,,-0.00001943400,0.00,0.16000
,,,-0.00001943200,0.04000,0.16000
,,,-0.00001943000,0.04000,0.04000
,,,-0.00001942800,0.00,-0.04000
,,,-0.00001942600,0.00,-0.04000
,,,-0.00001942400,0.04000,0.08000
,,,-0.00001942200,0.04000,0.16000
,,,-0.00001942000,0.00,0.08000
,,,-0.00001941800,0.04000,0.00
,,,-0.00001941600,-0.04000,-0.04000
,,,-0.00001941400,0.04000,0.04000
,,,-0.00001941200,0.04000,0.12000
,,,-0.00001941000,0.00,0.12000
,,,-0.00001940800,0.00,0.00
,,,-0.00001940600,-0.04000,0.00
,,,-0.00001940400,0.08000,0.08000
,,,-0.00001940200,0.04000,0.12000
,,,-0.00001940000,0.00,0.12000
,,,-0.00001939800,0.04000,0.00
,,,-0.00001939600,-0.04000,0.00
,,,-0.00001939400,0.04000,0.08000
,,,-0.00001939200,0.04000,0.08000
,,,-0.00001939000,0.00,0.12000
,,,-0.00001938800,0.04000,0.04000
,,,-0.00001938600,0.00,0.00
,,,-0.00001938400,0.04000,0.08000
,,,-0.00001938200,0.04000,0.04000
,,,-0.00001938000,0.00,0.08000
,,,-0.00001937800,0.04000,0.08000
,,,-0.00001937600,0.00,0.00
,,,-0.00001937400,0.04000,0.08000
,,,-0.00001937200,0.04000,0.04000
,,,-0.00001937000,0.04000,0.04000
,,,-0.00001936800,0.04000,0.08000
,,,-0.00001936600,0.00,0.00
,,,-0.00001936400,0.04000,0.12000
,,,-0.00001936200,0.04000,0.04000
,,,-0.00001936000,0.00,0.00
,,,-0.00001935800,0.04000,0.12000
,,,-0.00001935600,0.00,0.08000
,,,-0.00001935400,0.08000,0.08000
,,,-0.00001935200,0.04000,0.04000
,,,-0.00001935000,0.00,0.00
,,,-0.00001934800,0.04000,0.08000
,,,-0.00001934600,0.00,0.12000
,,,-0.00001934400,0.04000,0.08000
,,,-0.00001934200,0.04000,0.04000
,,,-0.00001934000,0.00,-0.04000
,,,-0.00001933800,0.04000,0.04000
,,,-0.00001933600,-0.04000,0.12000
,,,-0.00001933400,0.08000,0.12000
,,,-0.00001933200,0.04000,0.04000
,,,-0.00001933000,0.04000,0.00
,,,-0.00001932800,0.00,0.00
,,,-0.00001932600,-0.04000,0.12000
,,,-0.00001932400,0.08000,0.16000
,,,-0.00001932200,0.04000,0.04000
,,,-0.00001932000,0.00,0.00
,,,-0.00001931800,0.04000,0.00
,,,-0.00001931600,0.00,0.08000
,,,-0.00001931400,0.04000,0.20000
,,,-0.00001931200,0.04000,0.04000
,,,-0.00001931000,0.00,0.00
,,,-0.00001930800,0.04000,0.00
,,,-0.00001930600,-0.04000,0.04000
,,,-0.00001930400,0.04000,0.20000
,,,-0.00001930200,0.04000,0.08000
,,,-0.00001930000,0.00,0.00
,,,-0.00001929800,0.04000,-0.04000
,,,-0.00001929600,0.00,0.00
,,,-0.00001929400,0.04000,0.16000
,,,-0.00001929200,0.04000,0.12000
,,,-0.00001929000,0.00,0.00
,,,-0.00001928800,0.04000,-0.04000
,,,-0.00001928600,0.00,0.00
,,,-0.00001928400,0.08000,0.16000
,,,-0.00001928200,0.04000,0.16000
,,,-0.00001928000,0.04000,0.00
,,,-0.00001927800,0.04000,-0.04000
,,,-0.00001927600,0.00,-0.04000
,,,-0.00001927400,0.00,0.12000
,,,-0.00001927200,0.00,0.16000
,,,-0.00001927000,0.00,0.04000
